﻿<?xml version="1.0" encoding="utf-8"?>
<svg version="1.1" xmlns:xlink="http://www.w3.org/1999/xlink" width="68px" height="18px" xmlns="http://www.w3.org/2000/svg">
  <g transform="matrix(1 0 0 1 -612 -71 )">
    <path d="M 0 13  L 0 5  C 0 2.19999999999999  2.20000000000005 0  5 0  L 40 0  L 63 0  C 65.8 0  68 2.19999999999999  68 5  L 68 13  C 68 15.8  65.8 18  63 18  L 5 18  C 2.20000000000005 18  0 15.8  0 13  Z " fill-rule="nonzero" fill="#169bd5" stroke="none" transform="matrix(1 0 0 1 612 71 )" />
  </g>
</svg>