﻿<?xml version="1.0" encoding="utf-8"?>
<svg version="1.1" xmlns:xlink="http://www.w3.org/1999/xlink" width="93px" height="21px" xmlns="http://www.w3.org/2000/svg">
  <defs>
    <mask fill="white" id="clip9">
      <path d="M 0 16  L 0 5  C 0 2.19999999999999  2.19999999999999 0  5 0  L 83 0  L 88 0  C 90.8 0  93 2.19999999999999  93 5  L 93 16  C 93 18.8  90.8 21  88 21  L 5 21  C 2.19999999999999 21  0 18.8  0 16  Z " fill-rule="evenodd" />
    </mask>
  </defs>
  <g transform="matrix(1 0 0 1 -373 -369 )">
    <path d="M 0 16  L 0 5  C 0 2.19999999999999  2.19999999999999 0  5 0  L 83 0  L 88 0  C 90.8 0  93 2.19999999999999  93 5  L 93 16  C 93 18.8  90.8 21  88 21  L 5 21  C 2.19999999999999 21  0 18.8  0 16  Z " fill-rule="nonzero" fill="#ffffff" stroke="none" transform="matrix(1 0 0 1 373 369 )" />
    <path d="M 0 16  L 0 5  C 0 2.19999999999999  2.19999999999999 0  5 0  L 83 0  L 88 0  C 90.8 0  93 2.19999999999999  93 5  L 93 16  C 93 18.8  90.8 21  88 21  L 5 21  C 2.19999999999999 21  0 18.8  0 16  Z " stroke-width="2" stroke="#797979" fill="none" transform="matrix(1 0 0 1 373 369 )" mask="url(#clip9)" />
  </g>
</svg>