﻿<?xml version="1.0" encoding="utf-8"?>
<svg version="1.1" xmlns:xlink="http://www.w3.org/1999/xlink" width="63px" height="20px" xmlns="http://www.w3.org/2000/svg">
  <g transform="matrix(1 0 0 1 -345 -81 )">
    <path d="M 0 15  L 0 5  C 0 2.2  2.19999999999999 0  5 0  L 58 0  C 60.8 0  63 2.2  63 5  L 63 8.20000000000073  L 63 15  C 63 17.8  60.8 20  58 20  L 48.7999999999993 20  L 5 20  C 2.19999999999999 20  0 17.8  0 15  Z " fill-rule="nonzero" fill="#169bd5" stroke="none" transform="matrix(1 0 0 1 345 81 )" />
  </g>
</svg>