﻿<?xml version="1.0" encoding="utf-8"?>
<svg version="1.1" xmlns:xlink="http://www.w3.org/1999/xlink" width="78px" height="27px" xmlns="http://www.w3.org/2000/svg">
  <defs>
    <mask fill="white" id="clip19">
      <path d="M 0 22  L 0 5  C 0 2.20000000000005  1.55999999999999 0  3.54545454545455 0  L 38.2909090909091 0  L 74.4545454545455 0  C 76.44 0  78 2.20000000000005  78 5  L 78 22  C 78 24.8  76.44 27  74.4545454545455 27  L 3.54545454545455 27  C 1.55999999999999 27  0 24.8  0 22  Z " fill-rule="evenodd" />
    </mask>
  </defs>
  <g transform="matrix(1 0 0 1 -240 -706 )">
    <path d="M 0 22  L 0 5  C 0 2.20000000000005  1.55999999999999 0  3.54545454545455 0  L 38.2909090909091 0  L 74.4545454545455 0  C 76.44 0  78 2.20000000000005  78 5  L 78 22  C 78 24.8  76.44 27  74.4545454545455 27  L 3.54545454545455 27  C 1.55999999999999 27  0 24.8  0 22  Z " fill-rule="nonzero" fill="#ffffff" stroke="none" transform="matrix(1 0 0 1 240 706 )" />
    <path d="M 0 22  L 0 5  C 0 2.20000000000005  1.55999999999999 0  3.54545454545455 0  L 38.2909090909091 0  L 74.4545454545455 0  C 76.44 0  78 2.20000000000005  78 5  L 78 22  C 78 24.8  76.44 27  74.4545454545455 27  L 3.54545454545455 27  C 1.55999999999999 27  0 24.8  0 22  Z " stroke-width="2" stroke="#797979" fill="none" transform="matrix(1 0 0 1 240 706 )" mask="url(#clip19)" />
  </g>
</svg>