﻿<?xml version="1.0" encoding="utf-8"?>
<svg version="1.1" xmlns:xlink="http://www.w3.org/1999/xlink" width="12px" height="12px" viewBox="278 408  12 12" xmlns="http://www.w3.org/2000/svg">
  <path d="M 284 408  C 287.36 408  290 410.64  290 414  C 290 417.36  287.36 420  284 420  C 280.64 420  278 417.36  278 414  C 278 410.64  280.64 408  284 408  Z " fill-rule="nonzero" fill="#ffffff" stroke="none" />
  <path d="M 284 408.5  C 287.08 408.5  289.5 410.92  289.5 414  C 289.5 417.08  287.08 419.5  284 419.5  C 280.92 419.5  278.5 417.08  278.5 414  C 278.5 410.92  280.92 408.5  284 408.5  Z " stroke-width="1" stroke="#797979" fill="none" />
  <path d="M 284 417  C 282.32 417  281 415.68  281 414  C 281 412.32  282.32 411  284 411  C 285.68 411  287 412.32  287 414  C 287 415.68  285.68 417  284 417  " fill-rule="nonzero" fill="#797979" stroke="none" />
</svg>