﻿<?xml version="1.0" encoding="utf-8"?>
<svg version="1.1" xmlns:xlink="http://www.w3.org/1999/xlink" width="12px" height="12px" viewBox="7 70  12 12" xmlns="http://www.w3.org/2000/svg">
  <path d="M 7.5 70.5  L 18.5 70.5  L 18.5 81.5  L 7.5 81.5  L 7.5 70.5  Z " fill-rule="nonzero" fill="#f0f0f0" stroke="none" />
  <path d="M 7.5 70.5  L 18.5 70.5  L 18.5 81.5  L 7.5 81.5  L 7.5 70.5  Z " stroke-width="1" stroke="#797979" fill="none" />
  <path d="M 9.57142857142857 76  L 12.1428571428571 78.5714285714286  " stroke-width="2.57142857142857" stroke="#797979" fill="none" />
  <path d="M 12.1428571428571 78.5714285714286  L 16.4285714285714 72.5714285714286  " stroke-width="2.57142857142857" stroke="#797979" fill="none" />
</svg>