﻿<?xml version="1.0" encoding="utf-8"?>
<svg version="1.1" xmlns:xlink="http://www.w3.org/1999/xlink" width="12px" height="12px" viewBox="183 156  12 12" xmlns="http://www.w3.org/2000/svg">
  <path d="M 183.5 156.5  L 194.5 156.5  L 194.5 167.5  L 183.5 167.5  L 183.5 156.5  Z " fill-rule="nonzero" fill="#f0f0f0" stroke="none" />
  <path d="M 183.5 156.5  L 194.5 156.5  L 194.5 167.5  L 183.5 167.5  L 183.5 156.5  Z " stroke-width="1" stroke="#797979" fill="none" />
  <path d="M 185.571428571429 162  L 188.142857142857 164.571428571429  " stroke-width="2.57142857142857" stroke="#797979" fill="none" />
  <path d="M 188.142857142857 164.571428571429  L 192.428571428571 158.571428571429  " stroke-width="2.57142857142857" stroke="#797979" fill="none" />
</svg>