﻿<?xml version="1.0" encoding="utf-8"?>
<svg version="1.1" xmlns:xlink="http://www.w3.org/1999/xlink" width="12px" height="12px" viewBox="64 132  12 12" xmlns="http://www.w3.org/2000/svg">
  <path d="M 64.5 132.5  L 75.5 132.5  L 75.5 143.5  L 64.5 143.5  L 64.5 132.5  Z " fill-rule="nonzero" fill="#ffffff" stroke="none" />
  <path d="M 64.5 132.5  L 75.5 132.5  L 75.5 143.5  L 64.5 143.5  L 64.5 132.5  Z " stroke-width="1" stroke="#797979" fill="none" />
  <path d="M 66.5714285714286 138  L 69.1428571428571 140.571428571429  " stroke-width="2.57142857142857" stroke="#797979" fill="none" />
  <path d="M 69.1428571428571 140.571428571429  L 73.4285714285714 134.571428571429  " stroke-width="2.57142857142857" stroke="#797979" fill="none" />
</svg>