﻿<?xml version="1.0" encoding="utf-8"?>
<svg version="1.1" xmlns:xlink="http://www.w3.org/1999/xlink" width="82px" height="18px" xmlns="http://www.w3.org/2000/svg">
  <defs>
    <mask fill="white" id="clip8">
      <path d="M 0 13  L 0 5  C 0 2.2  2.2 0  5 0  L 49.2000000000007 0  L 77 0  C 79.8 0  82 2.2  82 5  L 82 13  C 82 15.8  79.8 18  77 18  L 5 18  C 2.2 18  0 15.8  0 13  Z " fill-rule="evenodd" />
    </mask>
  </defs>
  <g transform="matrix(1 0 0 1 -8 -81 )">
    <path d="M 0 13  L 0 5  C 0 2.2  2.2 0  5 0  L 49.2000000000007 0  L 77 0  C 79.8 0  82 2.2  82 5  L 82 13  C 82 15.8  79.8 18  77 18  L 5 18  C 2.2 18  0 15.8  0 13  Z " fill-rule="nonzero" fill="#ffffff" stroke="none" transform="matrix(1 0 0 1 8 81 )" />
    <path d="M 0 13  L 0 5  C 0 2.2  2.2 0  5 0  L 49.2000000000007 0  L 77 0  C 79.8 0  82 2.2  82 5  L 82 13  C 82 15.8  79.8 18  77 18  L 5 18  C 2.2 18  0 15.8  0 13  Z " stroke-width="2" stroke="#797979" fill="none" transform="matrix(1 0 0 1 8 81 )" mask="url(#clip8)" />
  </g>
</svg>